Kenzie Perkins - NYC Housing Prices DANL Project
…
What is the average housing price for each neighborhood in the Queens borough?

borough_name <- "Queens"
borough_data <- nyc_housing_sales %>%
  filter(borough == borough_name)

neighborhood_avg_price <- borough_data %>%
  group_by(neighborhood) %>%
  summarize(avg_price = mean(sale_price))

print(neighborhood_avg_price)

# A tibble: 59 × 2
   neighborhood       avg_price
   <chr>                  <dbl>
 1 AIRPORT LA GUARDIA   694702.
 2 ARVERNE              319446.
 3 ASTORIA             1075393.
 4 BAYSIDE              787965.
 5 BEECHHURST           956192.
 6 BELLE HARBOR         847342.
 7 BELLEROSE            541771.
 8 BRIARWOOD            600287.
 9 BROAD CHANNEL        330752.
10 CAMBRIA HEIGHTS      405349.
# ℹ 49 more rows
…
How many housing units were built in 1925?

units_1925 <- nyc_housing_sales |>
  filter(year_built == 1925) |>
           summarize(total_units_1925 =
                       sum(total_units, na.rm = TRUE))

Which zipcode in NYC has the most housing?

nyc_housing_sales %>%
  group_by(zip_code) %>%
  count() %>%
  arrange(desc(n))

# A tibble: 172 × 2
# Groups:   zip_code [172]
   zip_code     n
      <int> <int>
 1    10312  9023
 2    10314  8036
 3    10306  7979
 4    11234  5900
 5    11434  5230
 6    10305  4552
 7    11412  4525
 8    11413  4043
 9    10304  3957
10    10309  3871
# ℹ 162 more rows
…
